[gd_scene load_steps=3 format=2]

[sub_resource type="DynamicFont" id=1]

[sub_resource type="Theme" id=2]
default_font = SubResource( 1 )

[node name="Spash" type="Control"]
anchor_right = 1.0
anchor_bottom = 1.0
theme = SubResource( 2 )
__meta__ = {
"_edit_use_anchors_": false
}

[node name="ColorRect" type="ColorRect" parent="."]
margin_left = 0.154236
margin_top = 1.25995
margin_right = 1027.15
margin_bottom = 604.26
color = Color( 0.0705882, 0.0705882, 0.0705882, 1 )
__meta__ = {
"_edit_use_anchors_": false
}

[node name="Copyright" type="Label" parent="."]
anchor_left = 0.866
anchor_top = 0.912
anchor_right = 0.974
anchor_bottom = 0.978
margin_left = 4.63013
margin_top = 5.05988
margin_right = 3.71417
margin_bottom = 4.2619
size_flags_stretch_ratio = 0.0
custom_colors/font_color = Color( 1, 1, 1, 1 )
text = "Théophile Gervreau-Mercier"
align = 1
__meta__ = {
"_edit_use_anchors_": false
}

[node name="TextureButton" type="TextureButton" parent="."]
margin_left = 336.661
margin_top = 391.158
margin_right = 675.661
margin_bottom = 516.158
