<?xml version="1.0" encoding="utf-8"?>
<COLLADA xmlns="http://www.collada.org/2005/11/COLLADASchema" version="1.4.1" xmlns:xsi="http://www.w3.org/2001/XMLSchema-instance">
  <asset>
    <contributor>
      <author>Blender User</author>
      <authoring_tool>Blender 2.91.0 commit date:2020-11-25, commit time:08:34, hash:0f45cab862b8</authoring_tool>
    </contributor>
    <created>2021-01-15T14:40:31</created>
    <modified>2021-01-15T14:40:31</modified>
    <unit name="meter" meter="1"/>
    <up_axis>Z_UP</up_axis>
  </asset>
  <library_effects>
    <effect id="UntitledFilmStill58-effect">
      <profile_COMMON>
        <newparam sid="UntitledFilmStill58_jpeg-surface">
          <surface type="2D">
            <init_from>UntitledFilmStill58_jpeg</init_from>
          </surface>
        </newparam>
        <newparam sid="UntitledFilmStill58_jpeg-sampler">
          <sampler2D>
            <source>UntitledFilmStill58_jpeg-surface</source>
          </sampler2D>
        </newparam>
        <technique sid="common">
          <lambert>
            <emission>
              <color sid="emission">0 0 0 1</color>
            </emission>
            <diffuse>
              <texture texture="UntitledFilmStill58_jpeg-sampler" texcoord="UVMap"/>
            </diffuse>
            <index_of_refraction>
              <float sid="ior">1.45</float>
            </index_of_refraction>
          </lambert>
        </technique>
      </profile_COMMON>
    </effect>
    <effect id="UntitledFilmStill33-effect">
      <profile_COMMON>
        <newparam sid="UntitledFilmStill33_jpeg-surface">
          <surface type="2D">
            <init_from>UntitledFilmStill33_jpeg</init_from>
          </surface>
        </newparam>
        <newparam sid="UntitledFilmStill33_jpeg-sampler">
          <sampler2D>
            <source>UntitledFilmStill33_jpeg-surface</source>
          </sampler2D>
        </newparam>
        <technique sid="common">
          <lambert>
            <emission>
              <color sid="emission">0 0 0 1</color>
            </emission>
            <diffuse>
              <texture texture="UntitledFilmStill33_jpeg-sampler" texcoord="UVMap"/>
            </diffuse>
            <index_of_refraction>
              <float sid="ior">1.45</float>
            </index_of_refraction>
          </lambert>
        </technique>
      </profile_COMMON>
    </effect>
    <effect id="UntitledFilmStill8-effect">
      <profile_COMMON>
        <newparam sid="UntitledFilmStill8_jpeg-surface">
          <surface type="2D">
            <init_from>UntitledFilmStill8_jpeg</init_from>
          </surface>
        </newparam>
        <newparam sid="UntitledFilmStill8_jpeg-sampler">
          <sampler2D>
            <source>UntitledFilmStill8_jpeg-surface</source>
          </sampler2D>
        </newparam>
        <technique sid="common">
          <lambert>
            <emission>
              <color sid="emission">0 0 0 1</color>
            </emission>
            <diffuse>
              <texture texture="UntitledFilmStill8_jpeg-sampler" texcoord="UVMap"/>
            </diffuse>
            <index_of_refraction>
              <float sid="ior">1.45</float>
            </index_of_refraction>
          </lambert>
        </technique>
      </profile_COMMON>
    </effect>
    <effect id="UntitledFilmStill6-effect">
      <profile_COMMON>
        <newparam sid="UntitledFilmStill6_jpeg-surface">
          <surface type="2D">
            <init_from>UntitledFilmStill6_jpeg</init_from>
          </surface>
        </newparam>
        <newparam sid="UntitledFilmStill6_jpeg-sampler">
          <sampler2D>
            <source>UntitledFilmStill6_jpeg-surface</source>
          </sampler2D>
        </newparam>
        <technique sid="common">
          <lambert>
            <emission>
              <color sid="emission">0 0 0 1</color>
            </emission>
            <diffuse>
              <texture texture="UntitledFilmStill6_jpeg-sampler" texcoord="UVMap"/>
            </diffuse>
            <index_of_refraction>
              <float sid="ior">1.45</float>
            </index_of_refraction>
          </lambert>
        </technique>
      </profile_COMMON>
    </effect>
    <effect id="tourists-ii-1988-1_jpg_Large-effect">
      <profile_COMMON>
        <newparam sid="tourists-ii-1988-1_jpg_Large_jpeg-surface">
          <surface type="2D">
            <init_from>tourists-ii-1988-1_jpg_Large_jpeg</init_from>
          </surface>
        </newparam>
        <newparam sid="tourists-ii-1988-1_jpg_Large_jpeg-sampler">
          <sampler2D>
            <source>tourists-ii-1988-1_jpg_Large_jpeg-surface</source>
          </sampler2D>
        </newparam>
        <technique sid="common">
          <lambert>
            <emission>
              <color sid="emission">0 0 0 1</color>
            </emission>
            <diffuse>
              <texture texture="tourists-ii-1988-1_jpg_Large_jpeg-sampler" texcoord="UVMap"/>
            </diffuse>
            <index_of_refraction>
              <float sid="ior">1.45</float>
            </index_of_refraction>
          </lambert>
        </technique>
      </profile_COMMON>
    </effect>
    <effect id="Madame-searching-for-the-right-direction_-without-seeing-th_001-effect">
      <profile_COMMON>
        <newparam sid="Madame-searching-for-the-right-direction_-without-seeing-th_001-surface">
          <surface type="2D">
            <init_from>Madame-searching-for-the-right-direction_-without-seeing-th_001</init_from>
          </surface>
        </newparam>
        <newparam sid="Madame-searching-for-the-right-direction_-without-seeing-th_001-sampler">
          <sampler2D>
            <source>Madame-searching-for-the-right-direction_-without-seeing-th_001-surface</source>
          </sampler2D>
        </newparam>
        <technique sid="common">
          <lambert>
            <emission>
              <color sid="emission">0 0 0 1</color>
            </emission>
            <diffuse>
              <texture texture="Madame-searching-for-the-right-direction_-without-seeing-th_001-sampler" texcoord="UVMap"/>
            </diffuse>
            <index_of_refraction>
              <float sid="ior">1.45</float>
            </index_of_refraction>
          </lambert>
        </technique>
      </profile_COMMON>
    </effect>
    <effect id="Madame-searching-for-the-right-direction_-without-seeing-th-effect">
      <profile_COMMON>
        <newparam sid="Madame-searching-for-the-right-direction_-without-seeing-th-surface">
          <surface type="2D">
            <init_from>Madame-searching-for-the-right-direction_-without-seeing-th</init_from>
          </surface>
        </newparam>
        <newparam sid="Madame-searching-for-the-right-direction_-without-seeing-th-sampler">
          <sampler2D>
            <source>Madame-searching-for-the-right-direction_-without-seeing-th-surface</source>
          </sampler2D>
        </newparam>
        <technique sid="common">
          <lambert>
            <emission>
              <color sid="emission">0 0 0 1</color>
            </emission>
            <diffuse>
              <texture texture="Madame-searching-for-the-right-direction_-without-seeing-th-sampler" texcoord="UVMap"/>
            </diffuse>
            <index_of_refraction>
              <float sid="ior">1.45</float>
            </index_of_refraction>
          </lambert>
        </technique>
      </profile_COMMON>
    </effect>
    <effect id="Madame-searching-for-the-right-direction_-without-seeing-the-be-effect">
      <profile_COMMON>
        <newparam sid="Madame-searching-for-the-right-direction_-without-seeing-the-be-surface">
          <surface type="2D">
            <init_from>Madame-searching-for-the-right-direction_-without-seeing-the-be</init_from>
          </surface>
        </newparam>
        <newparam sid="Madame-searching-for-the-right-direction_-without-seeing-the-be-sampler">
          <sampler2D>
            <source>Madame-searching-for-the-right-direction_-without-seeing-the-be-surface</source>
          </sampler2D>
        </newparam>
        <technique sid="common">
          <lambert>
            <emission>
              <color sid="emission">0 0 0 1</color>
            </emission>
            <diffuse>
              <texture texture="Madame-searching-for-the-right-direction_-without-seeing-the-be-sampler" texcoord="UVMap"/>
            </diffuse>
            <index_of_refraction>
              <float sid="ior">1.45</float>
            </index_of_refraction>
          </lambert>
        </technique>
      </profile_COMMON>
    </effect>
    <effect id="beuys-effect">
      <profile_COMMON>
        <newparam sid="beuys_jpeg-surface">
          <surface type="2D">
            <init_from>beuys_jpeg</init_from>
          </surface>
        </newparam>
        <newparam sid="beuys_jpeg-sampler">
          <sampler2D>
            <source>beuys_jpeg-surface</source>
          </sampler2D>
        </newparam>
        <technique sid="common">
          <lambert>
            <emission>
              <color sid="emission">0 0 0 1</color>
            </emission>
            <diffuse>
              <texture texture="beuys_jpeg-sampler" texcoord="UVMap"/>
            </diffuse>
            <index_of_refraction>
              <float sid="ior">1.45</float>
            </index_of_refraction>
          </lambert>
        </technique>
      </profile_COMMON>
    </effect>
  </library_effects>
  <library_images>
    <image id="UntitledFilmStill33_jpeg" name="UntitledFilmStill33_jpeg">
      <init_from>UntitledFilmStill33.jpeg</init_from>
    </image>
    <image id="UntitledFilmStill58_jpeg" name="UntitledFilmStill58_jpeg">
      <init_from>UntitledFilmStill58.jpeg</init_from>
    </image>
    <image id="UntitledFilmStill6_jpeg" name="UntitledFilmStill6_jpeg">
      <init_from>UntitledFilmStill6.jpeg</init_from>
    </image>
    <image id="UntitledFilmStill8_jpeg" name="UntitledFilmStill8_jpeg">
      <init_from>UntitledFilmStill8.jpeg</init_from>
    </image>
  </library_images>
  <library_materials>
    <material id="UntitledFilmStill58-material" name="UntitledFilmStill58">
      <instance_effect url="#UntitledFilmStill58-effect"/>
    </material>
    <material id="UntitledFilmStill33-material" name="UntitledFilmStill33">
      <instance_effect url="#UntitledFilmStill33-effect"/>
    </material>
    <material id="UntitledFilmStill8-material" name="UntitledFilmStill8">
      <instance_effect url="#UntitledFilmStill8-effect"/>
    </material>
    <material id="UntitledFilmStill6-material" name="UntitledFilmStill6">
      <instance_effect url="#UntitledFilmStill6-effect"/>
    </material>
    <material id="tourists-ii-1988-1_jpg_Large-material" name="tourists-ii-1988-1.jpg!Large">
      <instance_effect url="#tourists-ii-1988-1_jpg_Large-effect"/>
    </material>
    <material id="Madame-searching-for-the-right-direction_-without-seeing-th_001-material" name="Madame-searching-for-the-right-direction,-without-seeing-th.001">
      <instance_effect url="#Madame-searching-for-the-right-direction_-without-seeing-th_001-effect"/>
    </material>
    <material id="Madame-searching-for-the-right-direction_-without-seeing-th-material" name="Madame-searching-for-the-right-direction,-without-seeing-th">
      <instance_effect url="#Madame-searching-for-the-right-direction_-without-seeing-th-effect"/>
    </material>
    <material id="Madame-searching-for-the-right-direction_-without-seeing-the-be-material" name="Madame-searching-for-the-right-direction,-without-seeing-the-be">
      <instance_effect url="#Madame-searching-for-the-right-direction_-without-seeing-the-be-effect"/>
    </material>
    <material id="beuys-material" name="beuys">
      <instance_effect url="#beuys-effect"/>
    </material>
  </library_materials>
  <library_geometries>
    <geometry id="UntitledFilmStill58-mesh" name="UntitledFilmStill58">
      <mesh>
        <source id="UntitledFilmStill58-mesh-positions">
          <float_array id="UntitledFilmStill58-mesh-positions-array" count="12">-0.7268723 -0.5 0 0.7268723 -0.5 0 -0.7268723 0.5 0 0.7268723 0.5 0</float_array>
          <technique_common>
            <accessor source="#UntitledFilmStill58-mesh-positions-array" count="4" stride="3">
              <param name="X" type="float"/>
              <param name="Y" type="float"/>
              <param name="Z" type="float"/>
            </accessor>
          </technique_common>
        </source>
        <source id="UntitledFilmStill58-mesh-normals">
          <float_array id="UntitledFilmStill58-mesh-normals-array" count="3">0 0 1</float_array>
          <technique_common>
            <accessor source="#UntitledFilmStill58-mesh-normals-array" count="1" stride="3">
              <param name="X" type="float"/>
              <param name="Y" type="float"/>
              <param name="Z" type="float"/>
            </accessor>
          </technique_common>
        </source>
        <source id="UntitledFilmStill58-mesh-map-0">
          <float_array id="UntitledFilmStill58-mesh-map-0-array" count="12">1 0 0 1 0 0 1 0 1 1 0 1</float_array>
          <technique_common>
            <accessor source="#UntitledFilmStill58-mesh-map-0-array" count="6" stride="2">
              <param name="S" type="float"/>
              <param name="T" type="float"/>
            </accessor>
          </technique_common>
        </source>
        <vertices id="UntitledFilmStill58-mesh-vertices">
          <input semantic="POSITION" source="#UntitledFilmStill58-mesh-positions"/>
        </vertices>
        <triangles material="UntitledFilmStill58-material" count="2">
          <input semantic="VERTEX" source="#UntitledFilmStill58-mesh-vertices" offset="0"/>
          <input semantic="NORMAL" source="#UntitledFilmStill58-mesh-normals" offset="1"/>
          <input semantic="TEXCOORD" source="#UntitledFilmStill58-mesh-map-0" offset="2" set="0"/>
          <p>1 0 0 2 0 1 0 0 2 1 0 3 3 0 4 2 0 5</p>
        </triangles>
      </mesh>
    </geometry>
    <geometry id="UntitledFilmStill33-mesh" name="UntitledFilmStill33">
      <mesh>
        <source id="UntitledFilmStill33-mesh-positions">
          <float_array id="UntitledFilmStill33-mesh-positions-array" count="12">-0.6792453 -0.5 0 0.6792453 -0.5 0 -0.6792453 0.5 0 0.6792453 0.5 0</float_array>
          <technique_common>
            <accessor source="#UntitledFilmStill33-mesh-positions-array" count="4" stride="3">
              <param name="X" type="float"/>
              <param name="Y" type="float"/>
              <param name="Z" type="float"/>
            </accessor>
          </technique_common>
        </source>
        <source id="UntitledFilmStill33-mesh-normals">
          <float_array id="UntitledFilmStill33-mesh-normals-array" count="3">0 0 1</float_array>
          <technique_common>
            <accessor source="#UntitledFilmStill33-mesh-normals-array" count="1" stride="3">
              <param name="X" type="float"/>
              <param name="Y" type="float"/>
              <param name="Z" type="float"/>
            </accessor>
          </technique_common>
        </source>
        <source id="UntitledFilmStill33-mesh-map-0">
          <float_array id="UntitledFilmStill33-mesh-map-0-array" count="12">1 0 0 1 0 0 1 0 1 1 0 1</float_array>
          <technique_common>
            <accessor source="#UntitledFilmStill33-mesh-map-0-array" count="6" stride="2">
              <param name="S" type="float"/>
              <param name="T" type="float"/>
            </accessor>
          </technique_common>
        </source>
        <vertices id="UntitledFilmStill33-mesh-vertices">
          <input semantic="POSITION" source="#UntitledFilmStill33-mesh-positions"/>
        </vertices>
        <triangles material="UntitledFilmStill33-material" count="2">
          <input semantic="VERTEX" source="#UntitledFilmStill33-mesh-vertices" offset="0"/>
          <input semantic="NORMAL" source="#UntitledFilmStill33-mesh-normals" offset="1"/>
          <input semantic="TEXCOORD" source="#UntitledFilmStill33-mesh-map-0" offset="2" set="0"/>
          <p>1 0 0 2 0 1 0 0 2 1 0 3 3 0 4 2 0 5</p>
        </triangles>
      </mesh>
    </geometry>
    <geometry id="UntitledFilmStill8-mesh" name="UntitledFilmStill8">
      <mesh>
        <source id="UntitledFilmStill8-mesh-positions">
          <float_array id="UntitledFilmStill8-mesh-positions-array" count="12">-0.400749 -0.5 0 0.400749 -0.5 0 -0.400749 0.5 0 0.400749 0.5 0</float_array>
          <technique_common>
            <accessor source="#UntitledFilmStill8-mesh-positions-array" count="4" stride="3">
              <param name="X" type="float"/>
              <param name="Y" type="float"/>
              <param name="Z" type="float"/>
            </accessor>
          </technique_common>
        </source>
        <source id="UntitledFilmStill8-mesh-normals">
          <float_array id="UntitledFilmStill8-mesh-normals-array" count="3">0 0 1</float_array>
          <technique_common>
            <accessor source="#UntitledFilmStill8-mesh-normals-array" count="1" stride="3">
              <param name="X" type="float"/>
              <param name="Y" type="float"/>
              <param name="Z" type="float"/>
            </accessor>
          </technique_common>
        </source>
        <source id="UntitledFilmStill8-mesh-map-0">
          <float_array id="UntitledFilmStill8-mesh-map-0-array" count="12">1 0 0 1 0 0 1 0 1 1 0 1</float_array>
          <technique_common>
            <accessor source="#UntitledFilmStill8-mesh-map-0-array" count="6" stride="2">
              <param name="S" type="float"/>
              <param name="T" type="float"/>
            </accessor>
          </technique_common>
        </source>
        <vertices id="UntitledFilmStill8-mesh-vertices">
          <input semantic="POSITION" source="#UntitledFilmStill8-mesh-positions"/>
        </vertices>
        <triangles material="UntitledFilmStill8-material" count="2">
          <input semantic="VERTEX" source="#UntitledFilmStill8-mesh-vertices" offset="0"/>
          <input semantic="NORMAL" source="#UntitledFilmStill8-mesh-normals" offset="1"/>
          <input semantic="TEXCOORD" source="#UntitledFilmStill8-mesh-map-0" offset="2" set="0"/>
          <p>1 0 0 2 0 1 0 0 2 1 0 3 3 0 4 2 0 5</p>
        </triangles>
      </mesh>
    </geometry>
    <geometry id="UntitledFilmStill6-mesh" name="UntitledFilmStill6">
      <mesh>
        <source id="UntitledFilmStill6-mesh-positions">
          <float_array id="UntitledFilmStill6-mesh-positions-array" count="12">-0.3333333 -0.5 0 0.3333333 -0.5 0 -0.3333333 0.5 0 0.3333333 0.5 0</float_array>
          <technique_common>
            <accessor source="#UntitledFilmStill6-mesh-positions-array" count="4" stride="3">
              <param name="X" type="float"/>
              <param name="Y" type="float"/>
              <param name="Z" type="float"/>
            </accessor>
          </technique_common>
        </source>
        <source id="UntitledFilmStill6-mesh-normals">
          <float_array id="UntitledFilmStill6-mesh-normals-array" count="3">0 0 1</float_array>
          <technique_common>
            <accessor source="#UntitledFilmStill6-mesh-normals-array" count="1" stride="3">
              <param name="X" type="float"/>
              <param name="Y" type="float"/>
              <param name="Z" type="float"/>
            </accessor>
          </technique_common>
        </source>
        <source id="UntitledFilmStill6-mesh-map-0">
          <float_array id="UntitledFilmStill6-mesh-map-0-array" count="12">1 0 0 1 0 0 1 0 1 1 0 1</float_array>
          <technique_common>
            <accessor source="#UntitledFilmStill6-mesh-map-0-array" count="6" stride="2">
              <param name="S" type="float"/>
              <param name="T" type="float"/>
            </accessor>
          </technique_common>
        </source>
        <vertices id="UntitledFilmStill6-mesh-vertices">
          <input semantic="POSITION" source="#UntitledFilmStill6-mesh-positions"/>
        </vertices>
        <triangles material="UntitledFilmStill6-material" count="2">
          <input semantic="VERTEX" source="#UntitledFilmStill6-mesh-vertices" offset="0"/>
          <input semantic="NORMAL" source="#UntitledFilmStill6-mesh-normals" offset="1"/>
          <input semantic="TEXCOORD" source="#UntitledFilmStill6-mesh-map-0" offset="2" set="0"/>
          <p>1 0 0 2 0 1 0 0 2 1 0 3 3 0 4 2 0 5</p>
        </triangles>
      </mesh>
    </geometry>
    <geometry id="tourists-ii-1988-1_jpg_Large-mesh" name="tourists-ii-1988-1.jpg!Large">
      <mesh>
        <source id="tourists-ii-1988-1_jpg_Large-mesh-positions">
          <float_array id="tourists-ii-1988-1_jpg_Large-mesh-positions-array" count="12">-0.6313132 -0.5 0 0.6313132 -0.5 0 -0.6313132 0.5 0 0.6313132 0.5 0</float_array>
          <technique_common>
            <accessor source="#tourists-ii-1988-1_jpg_Large-mesh-positions-array" count="4" stride="3">
              <param name="X" type="float"/>
              <param name="Y" type="float"/>
              <param name="Z" type="float"/>
            </accessor>
          </technique_common>
        </source>
        <source id="tourists-ii-1988-1_jpg_Large-mesh-normals">
          <float_array id="tourists-ii-1988-1_jpg_Large-mesh-normals-array" count="3">0 0 1</float_array>
          <technique_common>
            <accessor source="#tourists-ii-1988-1_jpg_Large-mesh-normals-array" count="1" stride="3">
              <param name="X" type="float"/>
              <param name="Y" type="float"/>
              <param name="Z" type="float"/>
            </accessor>
          </technique_common>
        </source>
        <source id="tourists-ii-1988-1_jpg_Large-mesh-map-0">
          <float_array id="tourists-ii-1988-1_jpg_Large-mesh-map-0-array" count="12">1 0 0 1 0 0 1 0 1 1 0 1</float_array>
          <technique_common>
            <accessor source="#tourists-ii-1988-1_jpg_Large-mesh-map-0-array" count="6" stride="2">
              <param name="S" type="float"/>
              <param name="T" type="float"/>
            </accessor>
          </technique_common>
        </source>
        <vertices id="tourists-ii-1988-1_jpg_Large-mesh-vertices">
          <input semantic="POSITION" source="#tourists-ii-1988-1_jpg_Large-mesh-positions"/>
        </vertices>
        <triangles material="tourists-ii-1988-1_jpg_Large-material" count="2">
          <input semantic="VERTEX" source="#tourists-ii-1988-1_jpg_Large-mesh-vertices" offset="0"/>
          <input semantic="NORMAL" source="#tourists-ii-1988-1_jpg_Large-mesh-normals" offset="1"/>
          <input semantic="TEXCOORD" source="#tourists-ii-1988-1_jpg_Large-mesh-map-0" offset="2" set="0"/>
          <p>1 0 0 2 0 1 0 0 2 1 0 3 3 0 4 2 0 5</p>
        </triangles>
      </mesh>
    </geometry>
    <geometry id="Madame-searching-for-the-right-direction_-without-seeing-th_001-mesh" name="Madame-searching-for-the-right-direction,-without-seeing-th.001">
      <mesh>
        <source id="Madame-searching-for-the-right-direction_-without-seeing-th_001-mesh-positions">
          <float_array id="Madame-searching-for-the-right-direction_-without-seeing-th_001-mesh-positions-array" count="12">-0.75 -0.5 0 0.75 -0.5 0 -0.75 0.5 0 0.75 0.5 0</float_array>
          <technique_common>
            <accessor source="#Madame-searching-for-the-right-direction_-without-seeing-th_001-mesh-positions-array" count="4" stride="3">
              <param name="X" type="float"/>
              <param name="Y" type="float"/>
              <param name="Z" type="float"/>
            </accessor>
          </technique_common>
        </source>
        <source id="Madame-searching-for-the-right-direction_-without-seeing-th_001-mesh-normals">
          <float_array id="Madame-searching-for-the-right-direction_-without-seeing-th_001-mesh-normals-array" count="3">0 0 1</float_array>
          <technique_common>
            <accessor source="#Madame-searching-for-the-right-direction_-without-seeing-th_001-mesh-normals-array" count="1" stride="3">
              <param name="X" type="float"/>
              <param name="Y" type="float"/>
              <param name="Z" type="float"/>
            </accessor>
          </technique_common>
        </source>
        <source id="Madame-searching-for-the-right-direction_-without-seeing-th_001-mesh-map-0">
          <float_array id="Madame-searching-for-the-right-direction_-without-seeing-th_001-mesh-map-0-array" count="12">1 0 0 1 0 0 1 0 1 1 0 1</float_array>
          <technique_common>
            <accessor source="#Madame-searching-for-the-right-direction_-without-seeing-th_001-mesh-map-0-array" count="6" stride="2">
              <param name="S" type="float"/>
              <param name="T" type="float"/>
            </accessor>
          </technique_common>
        </source>
        <vertices id="Madame-searching-for-the-right-direction_-without-seeing-th_001-mesh-vertices">
          <input semantic="POSITION" source="#Madame-searching-for-the-right-direction_-without-seeing-th_001-mesh-positions"/>
        </vertices>
        <triangles material="Madame-searching-for-the-right-direction_-without-seeing-th_001-material" count="2">
          <input semantic="VERTEX" source="#Madame-searching-for-the-right-direction_-without-seeing-th_001-mesh-vertices" offset="0"/>
          <input semantic="NORMAL" source="#Madame-searching-for-the-right-direction_-without-seeing-th_001-mesh-normals" offset="1"/>
          <input semantic="TEXCOORD" source="#Madame-searching-for-the-right-direction_-without-seeing-th_001-mesh-map-0" offset="2" set="0"/>
          <p>1 0 0 2 0 1 0 0 2 1 0 3 3 0 4 2 0 5</p>
        </triangles>
      </mesh>
    </geometry>
    <geometry id="Madame-searching-for-the-right-direction_-without-seeing-th-mesh" name="Madame-searching-for-the-right-direction,-without-seeing-th">
      <mesh>
        <source id="Madame-searching-for-the-right-direction_-without-seeing-th-mesh-positions">
          <float_array id="Madame-searching-for-the-right-direction_-without-seeing-th-mesh-positions-array" count="12">-0.75 -0.5 0 0.75 -0.5 0 -0.75 0.5 0 0.75 0.5 0</float_array>
          <technique_common>
            <accessor source="#Madame-searching-for-the-right-direction_-without-seeing-th-mesh-positions-array" count="4" stride="3">
              <param name="X" type="float"/>
              <param name="Y" type="float"/>
              <param name="Z" type="float"/>
            </accessor>
          </technique_common>
        </source>
        <source id="Madame-searching-for-the-right-direction_-without-seeing-th-mesh-normals">
          <float_array id="Madame-searching-for-the-right-direction_-without-seeing-th-mesh-normals-array" count="3">0 0 1</float_array>
          <technique_common>
            <accessor source="#Madame-searching-for-the-right-direction_-without-seeing-th-mesh-normals-array" count="1" stride="3">
              <param name="X" type="float"/>
              <param name="Y" type="float"/>
              <param name="Z" type="float"/>
            </accessor>
          </technique_common>
        </source>
        <source id="Madame-searching-for-the-right-direction_-without-seeing-th-mesh-map-0">
          <float_array id="Madame-searching-for-the-right-direction_-without-seeing-th-mesh-map-0-array" count="12">1 0 0 1 0 0 1 0 1 1 0 1</float_array>
          <technique_common>
            <accessor source="#Madame-searching-for-the-right-direction_-without-seeing-th-mesh-map-0-array" count="6" stride="2">
              <param name="S" type="float"/>
              <param name="T" type="float"/>
            </accessor>
          </technique_common>
        </source>
        <vertices id="Madame-searching-for-the-right-direction_-without-seeing-th-mesh-vertices">
          <input semantic="POSITION" source="#Madame-searching-for-the-right-direction_-without-seeing-th-mesh-positions"/>
        </vertices>
        <triangles material="Madame-searching-for-the-right-direction_-without-seeing-th-material" count="2">
          <input semantic="VERTEX" source="#Madame-searching-for-the-right-direction_-without-seeing-th-mesh-vertices" offset="0"/>
          <input semantic="NORMAL" source="#Madame-searching-for-the-right-direction_-without-seeing-th-mesh-normals" offset="1"/>
          <input semantic="TEXCOORD" source="#Madame-searching-for-the-right-direction_-without-seeing-th-mesh-map-0" offset="2" set="0"/>
          <p>1 0 0 2 0 1 0 0 2 1 0 3 3 0 4 2 0 5</p>
        </triangles>
      </mesh>
    </geometry>
    <geometry id="Madame-searching-for-the-right-direction_-without-seeing-the-be-mesh" name="Madame-searching-for-the-right-direction,-without-seeing-the-be">
      <mesh>
        <source id="Madame-searching-for-the-right-direction_-without-seeing-the-be-mesh-positions">
          <float_array id="Madame-searching-for-the-right-direction_-without-seeing-the-be-mesh-positions-array" count="12">-0.75 -0.5 0 0.75 -0.5 0 -0.75 0.5 0 0.75 0.5 0</float_array>
          <technique_common>
            <accessor source="#Madame-searching-for-the-right-direction_-without-seeing-the-be-mesh-positions-array" count="4" stride="3">
              <param name="X" type="float"/>
              <param name="Y" type="float"/>
              <param name="Z" type="float"/>
            </accessor>
          </technique_common>
        </source>
        <source id="Madame-searching-for-the-right-direction_-without-seeing-the-be-mesh-normals">
          <float_array id="Madame-searching-for-the-right-direction_-without-seeing-the-be-mesh-normals-array" count="3">0 0 1</float_array>
          <technique_common>
            <accessor source="#Madame-searching-for-the-right-direction_-without-seeing-the-be-mesh-normals-array" count="1" stride="3">
              <param name="X" type="float"/>
              <param name="Y" type="float"/>
              <param name="Z" type="float"/>
            </accessor>
          </technique_common>
        </source>
        <source id="Madame-searching-for-the-right-direction_-without-seeing-the-be-mesh-map-0">
          <float_array id="Madame-searching-for-the-right-direction_-without-seeing-the-be-mesh-map-0-array" count="12">1 0 0 1 0 0 1 0 1 1 0 1</float_array>
          <technique_common>
            <accessor source="#Madame-searching-for-the-right-direction_-without-seeing-the-be-mesh-map-0-array" count="6" stride="2">
              <param name="S" type="float"/>
              <param name="T" type="float"/>
            </accessor>
          </technique_common>
        </source>
        <vertices id="Madame-searching-for-the-right-direction_-without-seeing-the-be-mesh-vertices">
          <input semantic="POSITION" source="#Madame-searching-for-the-right-direction_-without-seeing-the-be-mesh-positions"/>
        </vertices>
        <triangles material="Madame-searching-for-the-right-direction_-without-seeing-the-be-material" count="2">
          <input semantic="VERTEX" source="#Madame-searching-for-the-right-direction_-without-seeing-the-be-mesh-vertices" offset="0"/>
          <input semantic="NORMAL" source="#Madame-searching-for-the-right-direction_-without-seeing-the-be-mesh-normals" offset="1"/>
          <input semantic="TEXCOORD" source="#Madame-searching-for-the-right-direction_-without-seeing-the-be-mesh-map-0" offset="2" set="0"/>
          <p>1 0 0 2 0 1 0 0 2 1 0 3 3 0 4 2 0 5</p>
        </triangles>
      </mesh>
    </geometry>
    <geometry id="beuys-mesh" name="beuys">
      <mesh>
        <source id="beuys-mesh-positions">
          <float_array id="beuys-mesh-positions-array" count="12">-0.6996269 -0.5 0 0.6996269 -0.5 0 -0.6996269 0.5 0 0.6996269 0.5 0</float_array>
          <technique_common>
            <accessor source="#beuys-mesh-positions-array" count="4" stride="3">
              <param name="X" type="float"/>
              <param name="Y" type="float"/>
              <param name="Z" type="float"/>
            </accessor>
          </technique_common>
        </source>
        <source id="beuys-mesh-normals">
          <float_array id="beuys-mesh-normals-array" count="3">0 0 1</float_array>
          <technique_common>
            <accessor source="#beuys-mesh-normals-array" count="1" stride="3">
              <param name="X" type="float"/>
              <param name="Y" type="float"/>
              <param name="Z" type="float"/>
            </accessor>
          </technique_common>
        </source>
        <source id="beuys-mesh-map-0">
          <float_array id="beuys-mesh-map-0-array" count="12">1 0 0 1 0 0 1 0 1 1 0 1</float_array>
          <technique_common>
            <accessor source="#beuys-mesh-map-0-array" count="6" stride="2">
              <param name="S" type="float"/>
              <param name="T" type="float"/>
            </accessor>
          </technique_common>
        </source>
        <vertices id="beuys-mesh-vertices">
          <input semantic="POSITION" source="#beuys-mesh-positions"/>
        </vertices>
        <triangles material="beuys-material" count="2">
          <input semantic="VERTEX" source="#beuys-mesh-vertices" offset="0"/>
          <input semantic="NORMAL" source="#beuys-mesh-normals" offset="1"/>
          <input semantic="TEXCOORD" source="#beuys-mesh-map-0" offset="2" set="0"/>
          <p>1 0 0 2 0 1 0 0 2 1 0 3 3 0 4 2 0 5</p>
        </triangles>
      </mesh>
    </geometry>
  </library_geometries>
  <library_visual_scenes>
    <visual_scene id="Scene" name="Scene">
      <node id="UntitledFilmStill58" name="UntitledFilmStill58" type="NODE">
        <matrix sid="transform">1 0 0 -1.636465 0 1 0 0 0 0 1 0 0 0 0 1</matrix>
        <instance_geometry url="#UntitledFilmStill58-mesh" name="UntitledFilmStill58">
          <bind_material>
            <technique_common>
              <instance_material symbol="UntitledFilmStill58-material" target="#UntitledFilmStill58-material">
                <bind_vertex_input semantic="UVMap" input_semantic="TEXCOORD" input_set="0"/>
              </instance_material>
            </technique_common>
          </bind_material>
        </instance_geometry>
      </node>
      <node id="UntitledFilmStill33" name="UntitledFilmStill33" type="NODE">
        <matrix sid="transform">1 0 0 -3.142583 0 1 0 0 0 0 1 0 0 0 0 1</matrix>
        <instance_geometry url="#UntitledFilmStill33-mesh" name="UntitledFilmStill33">
          <bind_material>
            <technique_common>
              <instance_material symbol="UntitledFilmStill33-material" target="#UntitledFilmStill33-material">
                <bind_vertex_input semantic="UVMap" input_semantic="TEXCOORD" input_set="0"/>
              </instance_material>
            </technique_common>
          </bind_material>
        </instance_geometry>
      </node>
      <node id="UntitledFilmStill8" name="UntitledFilmStill8" type="NODE">
        <matrix sid="transform">1 0 0 -4.322577 0 1 0 0 0 0 1 0 0 0 0 1</matrix>
        <instance_geometry url="#UntitledFilmStill8-mesh" name="UntitledFilmStill8">
          <bind_material>
            <technique_common>
              <instance_material symbol="UntitledFilmStill8-material" target="#UntitledFilmStill8-material">
                <bind_vertex_input semantic="UVMap" input_semantic="TEXCOORD" input_set="0"/>
              </instance_material>
            </technique_common>
          </bind_material>
        </instance_geometry>
      </node>
      <node id="UntitledFilmStill6" name="UntitledFilmStill6" type="NODE">
        <matrix sid="transform">1 0 0 -5.15666 0 1 0 0 0 0 1 0 0 0 0 1</matrix>
        <instance_geometry url="#UntitledFilmStill6-mesh" name="UntitledFilmStill6">
          <bind_material>
            <technique_common>
              <instance_material symbol="UntitledFilmStill6-material" target="#UntitledFilmStill6-material">
                <bind_vertex_input semantic="UVMap" input_semantic="TEXCOORD" input_set="0"/>
              </instance_material>
            </technique_common>
          </bind_material>
        </instance_geometry>
      </node>
      <node id="tourists-ii-1988-1_jpg_Large" name="tourists-ii-1988-1.jpg!Large" type="NODE">
        <matrix sid="transform">1 0 0 6.23094 0 1 0 0 0 0 1 0 0 0 0 1</matrix>
        <instance_geometry url="#tourists-ii-1988-1_jpg_Large-mesh" name="tourists-ii-1988-1.jpg!Large">
          <bind_material>
            <technique_common>
              <instance_material symbol="tourists-ii-1988-1_jpg_Large-material" target="#tourists-ii-1988-1_jpg_Large-material">
                <bind_vertex_input semantic="UVMap" input_semantic="TEXCOORD" input_set="0"/>
              </instance_material>
            </technique_common>
          </bind_material>
        </instance_geometry>
      </node>
      <node id="Madame-searching-for-the-right-direction_-without-seeing-th_001" name="Madame-searching-for-the-right-direction,-without-seeing-th.001" type="NODE">
        <matrix sid="transform">1 0 0 4.749627 0 1 0 0 0 0 1 0 0 0 0 1</matrix>
        <instance_geometry url="#Madame-searching-for-the-right-direction_-without-seeing-th_001-mesh" name="Madame-searching-for-the-right-direction,-without-seeing-th.001">
          <bind_material>
            <technique_common>
              <instance_material symbol="Madame-searching-for-the-right-direction_-without-seeing-th_001-material" target="#Madame-searching-for-the-right-direction_-without-seeing-th_001-material">
                <bind_vertex_input semantic="UVMap" input_semantic="TEXCOORD" input_set="0"/>
              </instance_material>
            </technique_common>
          </bind_material>
        </instance_geometry>
      </node>
      <node id="Madame-searching-for-the-right-direction_-without-seeing-th" name="Madame-searching-for-the-right-direction,-without-seeing-th" type="NODE">
        <matrix sid="transform">1 0 0 3.149627 0 1 0 0 0 0 1 0 0 0 0 1</matrix>
        <instance_geometry url="#Madame-searching-for-the-right-direction_-without-seeing-th-mesh" name="Madame-searching-for-the-right-direction,-without-seeing-th">
          <bind_material>
            <technique_common>
              <instance_material symbol="Madame-searching-for-the-right-direction_-without-seeing-th-material" target="#Madame-searching-for-the-right-direction_-without-seeing-th-material">
                <bind_vertex_input semantic="UVMap" input_semantic="TEXCOORD" input_set="0"/>
              </instance_material>
            </technique_common>
          </bind_material>
        </instance_geometry>
      </node>
      <node id="Madame-searching-for-the-right-direction_-without-seeing-the-be" name="Madame-searching-for-the-right-direction,-without-seeing-the-be" type="NODE">
        <matrix sid="transform">1 0 0 1.549627 0 1 0 0 0 0 1 0 0 0 0 1</matrix>
        <instance_geometry url="#Madame-searching-for-the-right-direction_-without-seeing-the-be-mesh" name="Madame-searching-for-the-right-direction,-without-seeing-the-be">
          <bind_material>
            <technique_common>
              <instance_material symbol="Madame-searching-for-the-right-direction_-without-seeing-the-be-material" target="#Madame-searching-for-the-right-direction_-without-seeing-the-be-material">
                <bind_vertex_input semantic="UVMap" input_semantic="TEXCOORD" input_set="0"/>
              </instance_material>
            </technique_common>
          </bind_material>
        </instance_geometry>
      </node>
      <node id="beuys" name="beuys" type="NODE">
        <matrix sid="transform">1 0 0 0 0 1 0 0 0 0 1 0 0 0 0 1</matrix>
        <instance_geometry url="#beuys-mesh" name="beuys">
          <bind_material>
            <technique_common>
              <instance_material symbol="beuys-material" target="#beuys-material">
                <bind_vertex_input semantic="UVMap" input_semantic="TEXCOORD" input_set="0"/>
              </instance_material>
            </technique_common>
          </bind_material>
        </instance_geometry>
      </node>
    </visual_scene>
  </library_visual_scenes>
  <scene>
    <instance_visual_scene url="#Scene"/>
  </scene>
</COLLADA>